\relax 
\providecommand\babel@aux[2]{}
\@nameuse{bbl@beforestart}
\catcode `"\active 
\babel@aux{ukrainian}{}
\@writefile{lof}{\contentsline {figure}{\numberline {1}{\ignorespaces Валідація даних серверною частиною.}}{2}{}\protected@file@percent }
\@writefile{lof}{\contentsline {figure}{\numberline {2}{\ignorespaces Загальний вигляд сторінки}}{3}{}\protected@file@percent }
\@writefile{lof}{\contentsline {figure}{\numberline {3}{\ignorespaces Модальне вікно для додавання студента та його валідація}}{3}{}\protected@file@percent }
\@writefile{lof}{\contentsline {figure}{\numberline {4}{\ignorespaces Модальне вікно для видалення студента та його валідація}}{4}{}\protected@file@percent }
\@writefile{lof}{\contentsline {figure}{\numberline {5}{\ignorespaces Модальне вікно для видалення студента}}{4}{}\protected@file@percent }
\gdef \@abspage@last{5}
